{
  "parent": "minecraft:recipes/root",
  "criteria": {
    "has_exposed_copper": {
      "conditions": {
        "items": [
          {
            "items": [
              "minecraft:exposed_copper"
            ]
          }
        ]
      },
      "trigger": "minecraft:inventory_changed"
    },
    "has_the_recipe": {
      "conditions": {
        "recipe": "deployanddestroy:exposed_copper_pressure_plate"
      },
      "trigger": "minecraft:recipe_unlocked"
    }
  },
  "requirements": [
    [
      "has_the_recipe",
      "has_exposed_copper"
    ]
  ],
  "rewards": {
    "recipes": [
      "deployanddestroy:exposed_copper_pressure_plate"
    ]
  }
}