{
  "replace": false,
  "values": [
    "deployanddestroy:azalea_slab",
    "deployanddestroy:swamp_slab",
    "deployanddestroy:cracked_brick_slab",
    "deployanddestroy:granite_brick_slab",
    "deployanddestroy:cracked_granite_brick_slab",
    "deployanddestroy:mossy_granite_brick_slab",
    "deployanddestroy:diorite_brick_slab",
    "deployanddestroy:cracked_diorite_brick_slab",
    "deployanddestroy:mossy_diorite_brick_slab",
    "deployanddestroy:andesite_brick_slab",
    "deployanddestroy:cracked_andesite_brick_slab",
    "deployanddestroy:mossy_andesite_brick_slab",
    "deployanddestroy:calcite_slab",
    "deployanddestroy:polished_calcite_slab",
    "deployanddestroy:calcite_brick_slab",
    "deployanddestroy:cracked_calcite_brick_slab",
    "deployanddestroy:mossy_calcite_brick_slab",
    "deployanddestroy:dripstone_slab",
    "deployanddestroy:polished_dripstone_slab",
    "deployanddestroy:dripstone_brick_slab",
    "deployanddestroy:cracked_dripstone_brick_slab",
    "deployanddestroy:mossy_dripstone_brick_slab",
    "deployanddestroy:mossy_cobbled_deepslate_slab",
    "deployanddestroy:cracked_deepslate_brick_slab",
    "deployanddestroy:mossy_deepslate_brick_slab",
    "deployanddestroy:cracked_deepslate_tile_slab",
    "deployanddestroy:cracked_brick_slab",
    "deployanddestroy:mossy_brick_slab",
    "deployanddestroy:sandstone_brick_slab",
    "deployanddestroy:cracked_sandstone_brick_slab",
    "deployanddestroy:mossy_sandstone_brick_slab",
    "deployanddestroy:polished_sandstone_slab",
    "deployanddestroy:red_sandstone_brick_slab",
    "deployanddestroy:cracked_red_sandstone_brick_slab",
    "deployanddestroy:mossy_red_sandstone_brick_slab",
    "deployanddestroy:polished_red_sandstone_slab",
    "deployanddestroy:sandstone_brick_slab",
    "deployanddestroy:cracked_sandstone_brick_slab",
    "deployanddestroy:mossy_sandstone_brick_slab",
    "deployanddestroy:netherrack_slab",
    "deployanddestroy:cracked_nether_brick_slab",
    "deployanddestroy:smooth_basalt_slab",
    "deployanddestroy:cracked_polished_blackstone_brick_slab",
    "deployanddestroy:cut_iron_slab",
    "deployanddestroy:cut_gold_slab",
    "deployanddestroy:cut_emerald_slab",
    "deployanddestroy:cut_lapis_slab",
    "deployanddestroy:cut_diamond_slab",
    "deployanddestroy:cut_netherite_slab",
    "deployanddestroy:quartz_brick_slab",
    "deployanddestroy:charred_quartz_slab",
    "deployanddestroy:smooth_charred_quartz_slab",
    "deployanddestroy:charred_quartz_brick_slab",
    "deployanddestroy:polished_amethyst_slab",
    "deployanddestroy:polished_amethyst_brick_slab",
    "deployanddestroy:cut_polished_amethyst_slab",
    "deployanddestroy:packed_ice_brick_slab",
    "deployanddestroy:cracked_packed_ice_brick_slab",
    "deployanddestroy:large_packed_ice_brick_slab",
    "deployanddestroy:large_cracked_packed_ice_brick_slab",
    "deployanddestroy:polished_packed_ice_slab",
    "deployanddestroy:blue_ice_brick_slab",
    "deployanddestroy:cracked_blue_ice_brick_slab",
    "deployanddestroy:large_blue_ice_brick_slab",
    "deployanddestroy:large_cracked_blue_ice_brick_slab",
    "deployanddestroy:polished_blue_ice_slab",
    "deployanddestroy:chiseled_granite_slab",
    "deployanddestroy:chiseled_diorite_slab",
    "deployanddestroy:chiseled_andesite_slab",
    "deployanddestroy:chiseled_calcite_slab",
    "deployanddestroy:chiseled_dripstone_slab"
  ]
}