{
  "parent": "minecraft:block/cube_bottom_top",
  "textures": {
    "bottom": "deployanddestroy:block/copper_barrel_bottom",
    "side": "deployanddestroy:block/copper_barrel_side",
    "top": "deployanddestroy:block/copper_barrel_top"
  }
}
