{
  "parent": "minecraft:block/cube_bottom_top",
  "textures": {
    "bottom": "deployanddestroy:block/diamond_barrel_bottom",
    "side": "deployanddestroy:block/diamond_barrel_side",
    "top": "deployanddestroy:block/diamond_barrel_top_open"
  }
}
