
            {
              "parent": "minecraft:block/cube_all",
                "textures": {
                  "all": "deployanddestroy:block/orange_lamp"
                }
            }
            