{
  "parent": "minecraft:block/slab",
  "textures": {
    "bottom": "deployanddestroy:block/cracked_diorite_bricks",
    "side": "deployanddestroy:block/cracked_diorite_bricks",
    "top": "deployanddestroy:block/cracked_diorite_bricks"
  }
}