{
  "parent": "minecraft:block/outer_stairs",
  "textures": {
    "bottom": "deployanddestroy:block/cracked_tuff_bricks",
    "side": "deployanddestroy:block/cracked_tuff_bricks",
    "top": "deployanddestroy:block/cracked_tuff_bricks"
  }
}