{
  "parent": "minecraft:block/slab",
  "textures": {
    "bottom": "deployanddestroy:block/cracked_calcite_bricks",
    "side": "deployanddestroy:block/cracked_calcite_bricks",
    "top": "deployanddestroy:block/cracked_calcite_bricks"
  }
}