{
  "parent": "minecraft:block/slab_top",
  "textures": {
    "bottom": "deployanddestroy:block/cut_diamond",
    "side": "deployanddestroy:block/cut_diamond",
    "top": "deployanddestroy:block/cut_diamond"
  }
}