{
  "parent": "minecraft:block/slab_top",
  "textures": {
    "bottom": "deployanddestroy:block/cut_polished_amethyst",
    "side": "deployanddestroy:block/cut_polished_amethyst",
    "top": "deployanddestroy:block/cut_polished_amethyst"
  }
}