{
  "parent": "minecraft:block/outer_stairs",
  "textures": {
    "bottom": "deployanddestroy:block/cut_gold",
    "side": "deployanddestroy:block/cut_gold",
    "top": "deployanddestroy:block/cut_gold"
  }
}