{
  "parent": "minecraft:block/slab_top",
  "textures": {
    "bottom": "deployanddestroy:block/granite_bricks",
    "side": "deployanddestroy:block/granite_bricks",
    "top": "deployanddestroy:block/granite_bricks"
  }
}