{
  "parent": "minecraft:block/slab",
  "textures": {
    "bottom": "deployanddestroy:block/large_cracked_packed_ice_bricks",
    "side": "deployanddestroy:block/large_cracked_packed_ice_bricks",
    "top": "deployanddestroy:block/large_cracked_packed_ice_bricks"
  }
}