{
  "parent": "minecraft:block/stairs",
  "textures": {
    "bottom": "deployanddestroy:block/large_cracked_blue_ice_bricks",
    "side": "deployanddestroy:block/large_cracked_blue_ice_bricks",
    "top": "deployanddestroy:block/large_cracked_blue_ice_bricks"
  }
}