{
  "parent": "minecraft:block/stairs",
  "textures": {
    "bottom": "deployanddestroy:block/mossy_red_sandstone_bricks",
    "side": "deployanddestroy:block/mossy_red_sandstone_bricks",
    "top": "deployanddestroy:block/mossy_red_sandstone_bricks"
  }
}