{
  "parent": "minecraft:block/slab",
  "textures": {
    "bottom": "deployanddestroy:block/mossy_cobbled_deepslate",
    "side": "deployanddestroy:block/mossy_cobbled_deepslate",
    "top": "deployanddestroy:block/mossy_cobbled_deepslate"
  }
}