{
  "parent": "minecraft:block/outer_stairs",
  "textures": {
    "bottom": "deployanddestroy:block/polished_red_sandstone",
    "side": "deployanddestroy:block/polished_red_sandstone",
    "top": "deployanddestroy:block/polished_red_sandstone"
  }
}