{
  "parent": "minecraft:block/outer_stairs",
  "textures": {
    "bottom": "deployanddestroy:block/polished_packed_ice",
    "side": "deployanddestroy:block/polished_packed_ice",
    "top": "deployanddestroy:block/polished_packed_ice"
  }
}