{
  "parent": "minecraft:block/inner_stairs",
  "textures": {
    "bottom": "deployanddestroy:block/polished_blue_ice",
    "side": "deployanddestroy:block/polished_blue_ice",
    "top": "deployanddestroy:block/polished_blue_ice"
  }
}