{
  "parent": "minecraft:block/inner_stairs",
  "textures": {
    "bottom": "deployanddestroy:block/sandstone_bricks",
    "side": "deployanddestroy:block/sandstone_bricks",
    "top": "deployanddestroy:block/sandstone_bricks"
  }
}