{
  "parent": "minecraft:block/stairs",
  "textures": {
    "bottom": "deployanddestroy:block/smooth_charred_quartz_block",
    "side": "deployanddestroy:block/smooth_charred_quartz_block",
    "top": "deployanddestroy:block/smooth_charred_quartz_block"
  }
}