{
  "variants": {
    "type=bottom": {
      "model": "deployanddestroy:block/cracked_diorite_brick_slab"
    },
    "type=double": {
      "model": "deployanddestroy:block/cracked_diorite_bricks"
    },
    "type=top": {
      "model": "deployanddestroy:block/cracked_diorite_brick_slab_top"
    }
  }
}