{
  "variants": {
    "type=bottom": {
      "model": "deployanddestroy:block/cut_lapis_slab"
    },
    "type=double": {
      "model": "deployanddestroy:block/cut_lapis"
    },
    "type=top": {
      "model": "deployanddestroy:block/cut_lapis_slab_top"
    }
  }
}