{
  "variants": {
    "type=bottom": {
      "model": "deployanddestroy:block/dripstone_slab"
    },
    "type=double": {
      "model": "minecraft:block/dripstone_block"
    },
    "type=top": {
      "model": "deployanddestroy:block/dripstone_slab_top"
    }
  }
}