{
  "variants": {
    "type=bottom": {
      "model": "deployanddestroy:block/polished_calcite_slab"
    },
    "type=double": {
      "model": "deployanddestroy:block/polished_calcite"
    },
    "type=top": {
      "model": "deployanddestroy:block/polished_calcite_slab_top"
    }
  }
}