{
  "variants": {
    "type=bottom": {
      "model": "deployanddestroy:block/polished_amethyst_slab"
    },
    "type=double": {
      "model": "deployanddestroy:block/polished_amethyst"
    },
    "type=top": {
      "model": "deployanddestroy:block/polished_amethyst_slab_top"
    }
  }
}