{
  "variants": {
    "facing=east": {
      "model": "deployanddestroy:block/wall_amethyst_bone_torch"
    },
    "facing=north": {
      "model": "deployanddestroy:block/wall_amethyst_bone_torch",
      "y": 270
    },
    "facing=south": {
      "model": "deployanddestroy:block/wall_amethyst_bone_torch",
      "y": 90
    },
    "facing=west": {
      "model": "deployanddestroy:block/wall_amethyst_bone_torch",
      "y": 180
    }
  }
}