{
  "parent": "minecraft:recipes/root",
  "criteria": {
    "has_amethyst_shard": {
      "conditions": {
        "items": [
          {
            "items": [
              "minecraft:amethyst_shard"
            ]
          }
        ]
      },
      "trigger": "minecraft:inventory_changed"
    },
    "has_stick": {
      "conditions": {
        "items": [
          {
            "items": [
              "minecraft:stick"
            ]
          }
        ]
      },
      "trigger": "minecraft:inventory_changed"
    },
    "has_the_recipe": {
      "conditions": {
        "recipe": "minecraft:amethyst_campfire"
      },
      "trigger": "minecraft:recipe_unlocked"
    },
    "logs": {
      "conditions": {
        "items": [
          {
            "tag": "minecraft:logs"
          }
        ]
      },
      "trigger": "minecraft:inventory_changed"
    }
  },
  "requirements": [
    [
      "has_the_recipe",
      "has_amethyst_shard",
      "has_stick",
      "logs"
    ]
  ],
  "rewards": {
    "recipes": [
      "minecraft:amethyst_campfire"
    ]
  }
}