{
  "parent": "minecraft:recipes/root",
  "criteria": {
    "has_stripped_azalea_log": {
      "conditions": {
        "items": [
          {
            "items": [
              "deployanddestroy:stripped_azalea_log"
            ]
          }
        ]
      },
      "trigger": "minecraft:inventory_changed"
    },
    "has_the_recipe": {
      "conditions": {
        "recipe": "minecraft:azalea_slab_from_stripped_azalea_log_woodcutting"
      },
      "trigger": "minecraft:recipe_unlocked"
    }
  },
  "requirements": [
    [
      "has_the_recipe",
      "has_stripped_azalea_log"
    ]
  ],
  "rewards": {
    "recipes": [
      "minecraft:azalea_slab_from_stripped_azalea_log_woodcutting"
    ]
  }
}