{
  "parent": "minecraft:recipes/root",
  "criteria": {
    "has_charred_quartz_block": {
      "conditions": {
        "items": [
          {
            "items": [
              "deployanddestroy:charred_quartz_block"
            ]
          }
        ]
      },
      "trigger": "minecraft:inventory_changed"
    },
    "has_the_recipe": {
      "conditions": {
        "recipe": "deployanddestroy:charred_quartz_stairs"
      },
      "trigger": "minecraft:recipe_unlocked"
    }
  },
  "requirements": [
    [
      "has_the_recipe",
      "has_charred_quartz_block"
    ]
  ],
  "rewards": {
    "recipes": [
      "deployanddestroy:charred_quartz_stairs"
    ]
  }
}