{
  "parent": "minecraft:recipes/root",
  "criteria": {
    "has_quartz_wall": {
      "conditions": {
        "items": [
          {
            "items": [
              "deployanddestroy:quartz_wall"
            ]
          }
        ]
      },
      "trigger": "minecraft:inventory_changed"
    },
    "has_the_recipe": {
      "conditions": {
        "recipe": "minecraft:charred_quartz_wall_from_blasting_quartz_wall"
      },
      "trigger": "minecraft:recipe_unlocked"
    }
  },
  "requirements": [
    [
      "has_the_recipe",
      "has_quartz_wall"
    ]
  ],
  "rewards": {
    "recipes": [
      "minecraft:charred_quartz_wall_from_blasting_quartz_wall"
    ]
  }
}