{
  "parent": "minecraft:recipes/root",
  "criteria": {
    "has_packed_ice_brick_slab": {
      "conditions": {
        "items": [
          {
            "items": [
              "deployanddestroy:packed_ice_brick_slab"
            ]
          }
        ]
      },
      "trigger": "minecraft:inventory_changed"
    },
    "has_the_recipe": {
      "conditions": {
        "recipe": "deployanddestroy:chiseled_packed_ice_bricks"
      },
      "trigger": "minecraft:recipe_unlocked"
    }
  },
  "requirements": [
    [
      "has_the_recipe",
      "has_packed_ice_brick_slab"
    ]
  ],
  "rewards": {
    "recipes": [
      "deployanddestroy:chiseled_packed_ice_bricks"
    ]
  }
}