{
  "parent": "minecraft:recipes/root",
  "criteria": {
    "has_granite": {
      "conditions": {
        "items": [
          {
            "items": [
              "minecraft:granite"
            ]
          }
        ]
      },
      "trigger": "minecraft:inventory_changed"
    },
    "has_the_recipe": {
      "conditions": {
        "recipe": "minecraft:chiseled_granite_slab_from_granite_stonecutting"
      },
      "trigger": "minecraft:recipe_unlocked"
    }
  },
  "requirements": [
    [
      "has_the_recipe",
      "has_granite"
    ]
  ],
  "rewards": {
    "recipes": [
      "minecraft:chiseled_granite_slab_from_granite_stonecutting"
    ]
  }
}