{
  "parent": "minecraft:recipes/root",
  "criteria": {
    "has_nether_brick_stairs": {
      "conditions": {
        "items": [
          {
            "items": [
              "minecraft:nether_brick_stairs"
            ]
          }
        ]
      },
      "trigger": "minecraft:inventory_changed"
    },
    "has_the_recipe": {
      "conditions": {
        "recipe": "minecraft:cracked_nether_brick_stairs_from_smelting_nether_brick_stairs"
      },
      "trigger": "minecraft:recipe_unlocked"
    }
  },
  "requirements": [
    [
      "has_the_recipe",
      "has_nether_brick_stairs"
    ]
  ],
  "rewards": {
    "recipes": [
      "minecraft:cracked_nether_brick_stairs_from_smelting_nether_brick_stairs"
    ]
  }
}