{
  "parent": "minecraft:recipes/root",
  "criteria": {
    "has_granite_brick_stairs": {
      "conditions": {
        "items": [
          {
            "items": [
              "deployanddestroy:granite_brick_stairs"
            ]
          }
        ]
      },
      "trigger": "minecraft:inventory_changed"
    },
    "has_the_recipe": {
      "conditions": {
        "recipe": "minecraft:cracked_granite_brick_stairs_from_blasting_granite_brick_stairs"
      },
      "trigger": "minecraft:recipe_unlocked"
    }
  },
  "requirements": [
    [
      "has_the_recipe",
      "has_granite_brick_stairs"
    ]
  ],
  "rewards": {
    "recipes": [
      "minecraft:cracked_granite_brick_stairs_from_blasting_granite_brick_stairs"
    ]
  }
}