{
  "parent": "minecraft:recipes/root",
  "criteria": {
    "has_cut_diamond": {
      "conditions": {
        "items": [
          {
            "items": [
              "deployanddestroy:cut_diamond"
            ]
          }
        ]
      },
      "trigger": "minecraft:inventory_changed"
    },
    "has_the_recipe": {
      "conditions": {
        "recipe": "minecraft:cut_diamond_slab_from_cut_diamond_stonecutting"
      },
      "trigger": "minecraft:recipe_unlocked"
    }
  },
  "requirements": [
    [
      "has_the_recipe",
      "has_cut_diamond"
    ]
  ],
  "rewards": {
    "recipes": [
      "minecraft:cut_diamond_slab_from_cut_diamond_stonecutting"
    ]
  }
}