{
  "parent": "minecraft:recipes/root",
  "criteria": {
    "has_amethyst_block": {
      "conditions": {
        "items": [
          {
            "items": [
              "minecraft:amethyst_block"
            ]
          }
        ]
      },
      "trigger": "minecraft:inventory_changed"
    },
    "has_the_recipe": {
      "conditions": {
        "recipe": "minecraft:cut_polished_amethyst_slab_from_amethyst_block_stonecutting"
      },
      "trigger": "minecraft:recipe_unlocked"
    }
  },
  "requirements": [
    [
      "has_the_recipe",
      "has_amethyst_block"
    ]
  ],
  "rewards": {
    "recipes": [
      "minecraft:cut_polished_amethyst_slab_from_amethyst_block_stonecutting"
    ]
  }
}