{
  "parent": "minecraft:recipes/root",
  "criteria": {
    "has_polished_deepslate": {
      "conditions": {
        "items": [
          {
            "items": [
              "minecraft:polished_deepslate"
            ]
          }
        ]
      },
      "trigger": "minecraft:inventory_changed"
    },
    "has_the_recipe": {
      "conditions": {
        "recipe": "minecraft:deepslate_tiles_column_from_polished_deepslate_stonecutting"
      },
      "trigger": "minecraft:recipe_unlocked"
    }
  },
  "requirements": [
    [
      "has_the_recipe",
      "has_polished_deepslate"
    ]
  ],
  "rewards": {
    "recipes": [
      "minecraft:deepslate_tiles_column_from_polished_deepslate_stonecutting"
    ]
  }
}