{
  "parent": "minecraft:recipes/root",
  "criteria": {
    "has_mangrove_wood_column": {
      "conditions": {
        "items": [
          {
            "items": [
              "deployanddestroy:mangrove_wood_column"
            ]
          }
        ]
      },
      "trigger": "minecraft:inventory_changed"
    },
    "has_the_recipe": {
      "conditions": {
        "recipe": "minecraft:mangrove_planks_column_from_mangrove_wood_column_woodcutting"
      },
      "trigger": "minecraft:recipe_unlocked"
    }
  },
  "requirements": [
    [
      "has_the_recipe",
      "has_mangrove_wood_column"
    ]
  ],
  "rewards": {
    "recipes": [
      "minecraft:mangrove_planks_column_from_mangrove_wood_column_woodcutting"
    ]
  }
}