{
  "parent": "minecraft:recipes/root",
  "criteria": {
    "has_stripped_mangrove_wood": {
      "conditions": {
        "items": [
          {
            "items": [
              "minecraft:stripped_mangrove_wood"
            ]
          }
        ]
      },
      "trigger": "minecraft:inventory_changed"
    },
    "has_the_recipe": {
      "conditions": {
        "recipe": "minecraft:mangrove_stairs_from_stripped_mangrove_wood_woodcutting"
      },
      "trigger": "minecraft:recipe_unlocked"
    }
  },
  "requirements": [
    [
      "has_the_recipe",
      "has_stripped_mangrove_wood"
    ]
  ],
  "rewards": {
    "recipes": [
      "minecraft:mangrove_stairs_from_stripped_mangrove_wood_woodcutting"
    ]
  }
}