{
  "parent": "minecraft:recipes/root",
  "criteria": {
    "has_mossy_granite_bricks": {
      "conditions": {
        "items": [
          {
            "items": [
              "deployanddestroy:mossy_granite_bricks"
            ]
          }
        ]
      },
      "trigger": "minecraft:inventory_changed"
    },
    "has_the_recipe": {
      "conditions": {
        "recipe": "deployanddestroy:mossy_granite_brick_stairs"
      },
      "trigger": "minecraft:recipe_unlocked"
    }
  },
  "requirements": [
    [
      "has_the_recipe",
      "has_mossy_granite_bricks"
    ]
  ],
  "rewards": {
    "recipes": [
      "deployanddestroy:mossy_granite_brick_stairs"
    ]
  }
}