{
  "parent": "minecraft:recipes/root",
  "criteria": {
    "has_mossy_deepslate_bricks": {
      "conditions": {
        "items": [
          {
            "items": [
              "deployanddestroy:mossy_deepslate_bricks"
            ]
          }
        ]
      },
      "trigger": "minecraft:inventory_changed"
    },
    "has_the_recipe": {
      "conditions": {
        "recipe": "minecraft:mossy_deepslate_bricks_column"
      },
      "trigger": "minecraft:recipe_unlocked"
    }
  },
  "requirements": [
    [
      "has_the_recipe",
      "has_mossy_deepslate_bricks"
    ]
  ],
  "rewards": {
    "recipes": [
      "minecraft:mossy_deepslate_bricks_column"
    ]
  }
}