{
  "parent": "minecraft:recipes/root",
  "criteria": {
    "has_oak_log_column": {
      "conditions": {
        "items": [
          {
            "items": [
              "deployanddestroy:oak_log_column"
            ]
          }
        ]
      },
      "trigger": "minecraft:inventory_changed"
    },
    "has_the_recipe": {
      "conditions": {
        "recipe": "minecraft:oak_planks_from_oak_log_column_woodcutting"
      },
      "trigger": "minecraft:recipe_unlocked"
    }
  },
  "requirements": [
    [
      "has_the_recipe",
      "has_oak_log_column"
    ]
  ],
  "rewards": {
    "recipes": [
      "minecraft:oak_planks_from_oak_log_column_woodcutting"
    ]
  }
}