{
  "parent": "minecraft:recipes/root",
  "criteria": {
    "has_oxidized_copper": {
      "conditions": {
        "items": [
          {
            "items": [
              "minecraft:oxidized_copper"
            ]
          }
        ]
      },
      "trigger": "minecraft:inventory_changed"
    },
    "has_the_recipe": {
      "conditions": {
        "recipe": "minecraft:oxidized_copper_pressure_plate_from_oxidized_copper_stonecutting"
      },
      "trigger": "minecraft:recipe_unlocked"
    }
  },
  "requirements": [
    [
      "has_the_recipe",
      "has_oxidized_copper"
    ]
  ],
  "rewards": {
    "recipes": [
      "minecraft:oxidized_copper_pressure_plate_from_oxidized_copper_stonecutting"
    ]
  }
}