{
  "parent": "minecraft:recipes/root",
  "criteria": {
    "has_smooth_red_sandstone": {
      "conditions": {
        "items": [
          {
            "items": [
              "minecraft:smooth_red_sandstone"
            ]
          }
        ]
      },
      "trigger": "minecraft:inventory_changed"
    },
    "has_the_recipe": {
      "conditions": {
        "recipe": "minecraft:polished_red_sandstone_wall_from_smooth_red_sandstone_stonecutting"
      },
      "trigger": "minecraft:recipe_unlocked"
    }
  },
  "requirements": [
    [
      "has_the_recipe",
      "has_smooth_red_sandstone"
    ]
  ],
  "rewards": {
    "recipes": [
      "minecraft:polished_red_sandstone_wall_from_smooth_red_sandstone_stonecutting"
    ]
  }
}