{
  "parent": "minecraft:recipes/root",
  "criteria": {
    "has_diorite": {
      "conditions": {
        "items": [
          {
            "items": [
              "minecraft:diorite"
            ]
          }
        ]
      },
      "trigger": "minecraft:inventory_changed"
    },
    "has_the_recipe": {
      "conditions": {
        "recipe": "minecraft:polished_diorite_column_from_diorite_stonecutting"
      },
      "trigger": "minecraft:recipe_unlocked"
    }
  },
  "requirements": [
    [
      "has_the_recipe",
      "has_diorite"
    ]
  ],
  "rewards": {
    "recipes": [
      "minecraft:polished_diorite_column_from_diorite_stonecutting"
    ]
  }
}