{
  "parent": "minecraft:recipes/root",
  "criteria": {
    "has_purpur_pillar": {
      "conditions": {
        "items": [
          {
            "items": [
              "minecraft:purpur_pillar"
            ]
          }
        ]
      },
      "trigger": "minecraft:inventory_changed"
    },
    "has_the_recipe": {
      "conditions": {
        "recipe": "minecraft:purpur_pillar_column_from_purpur_pillar_stonecutting"
      },
      "trigger": "minecraft:recipe_unlocked"
    }
  },
  "requirements": [
    [
      "has_the_recipe",
      "has_purpur_pillar"
    ]
  ],
  "rewards": {
    "recipes": [
      "minecraft:purpur_pillar_column_from_purpur_pillar_stonecutting"
    ]
  }
}