{
  "parent": "minecraft:recipes/root",
  "criteria": {
    "has_quartz_stairs": {
      "conditions": {
        "items": [
          {
            "items": [
              "minecraft:quartz_stairs"
            ]
          }
        ]
      },
      "trigger": "minecraft:inventory_changed"
    },
    "has_the_recipe": {
      "conditions": {
        "recipe": "minecraft:quartz_from_quartz_stairs_stonecutting"
      },
      "trigger": "minecraft:recipe_unlocked"
    }
  },
  "requirements": [
    [
      "has_the_recipe",
      "has_quartz_stairs"
    ]
  ],
  "rewards": {
    "recipes": [
      "minecraft:quartz_from_quartz_stairs_stonecutting"
    ]
  }
}