{
  "parent": "minecraft:recipes/root",
  "criteria": {
    "has_redstone": {
      "conditions": {
        "items": [
          {
            "items": [
              "minecraft:redstone"
            ]
          }
        ]
      },
      "trigger": "minecraft:inventory_changed"
    },
    "has_redstone_bone_torch": {
      "conditions": {
        "items": [
          {
            "items": [
              "deployanddestroy:redstone_bone_torch"
            ]
          }
        ]
      },
      "trigger": "minecraft:inventory_changed"
    },
    "has_redstone_torch": {
      "conditions": {
        "items": [
          {
            "items": [
              "minecraft:redstone_torch"
            ]
          }
        ]
      },
      "trigger": "minecraft:inventory_changed"
    },
    "has_stone": {
      "conditions": {
        "items": [
          {
            "items": [
              "minecraft:stone"
            ]
          }
        ]
      },
      "trigger": "minecraft:inventory_changed"
    },
    "has_the_recipe": {
      "conditions": {
        "recipe": "minecraft:repeater"
      },
      "trigger": "minecraft:recipe_unlocked"
    }
  },
  "requirements": [
    [
      "has_the_recipe",
      "has_redstone",
      "has_stone",
      "has_redstone_torch",
      "has_redstone_bone_torch"
    ]
  ],
  "rewards": {
    "recipes": [
      "minecraft:repeater"
    ]
  }
}