{
  "parent": "minecraft:recipes/root",
  "criteria": {
    "has_smooth_charred_quartz_block": {
      "conditions": {
        "items": [
          {
            "items": [
              "deployanddestroy:smooth_charred_quartz_block"
            ]
          }
        ]
      },
      "trigger": "minecraft:inventory_changed"
    },
    "has_the_recipe": {
      "conditions": {
        "recipe": "minecraft:smooth_charred_quartz_slab_from_smooth_charred_quartz_block_stonecutting"
      },
      "trigger": "minecraft:recipe_unlocked"
    }
  },
  "requirements": [
    [
      "has_the_recipe",
      "has_smooth_charred_quartz_block"
    ]
  ],
  "rewards": {
    "recipes": [
      "minecraft:smooth_charred_quartz_slab_from_smooth_charred_quartz_block_stonecutting"
    ]
  }
}