{
  "parent": "minecraft:recipes/root",
  "criteria": {
    "has_smooth_stone": {
      "conditions": {
        "items": [
          {
            "items": [
              "minecraft:smooth_stone"
            ]
          }
        ]
      },
      "trigger": "minecraft:inventory_changed"
    },
    "has_the_recipe": {
      "conditions": {
        "recipe": "deployanddestroy:smooth_stone_stairs"
      },
      "trigger": "minecraft:recipe_unlocked"
    }
  },
  "requirements": [
    [
      "has_the_recipe",
      "has_smooth_stone"
    ]
  ],
  "rewards": {
    "recipes": [
      "deployanddestroy:smooth_stone_stairs"
    ]
  }
}