{
  "parent": "minecraft:recipes/root",
  "criteria": {
    "has_jungle_log": {
      "conditions": {
        "items": [
          {
            "items": [
              "minecraft:jungle_log"
            ]
          }
        ]
      },
      "trigger": "minecraft:inventory_changed"
    },
    "has_the_recipe": {
      "conditions": {
        "recipe": "minecraft:stripped_jungle_wood_from_jungle_log_woodcutting"
      },
      "trigger": "minecraft:recipe_unlocked"
    }
  },
  "requirements": [
    [
      "has_the_recipe",
      "has_jungle_log"
    ]
  ],
  "rewards": {
    "recipes": [
      "minecraft:stripped_jungle_wood_from_jungle_log_woodcutting"
    ]
  }
}