{
  "parent": "minecraft:recipes/root",
  "criteria": {
    "has_stripped_dark_oak_wood": {
      "conditions": {
        "items": [
          {
            "items": [
              "minecraft:stripped_dark_oak_wood"
            ]
          }
        ]
      },
      "trigger": "minecraft:inventory_changed"
    },
    "has_the_recipe": {
      "conditions": {
        "recipe": "minecraft:stripped_dark_oak_wood_column_from_stripped_dark_oak_wood_woodcutting"
      },
      "trigger": "minecraft:recipe_unlocked"
    }
  },
  "requirements": [
    [
      "has_the_recipe",
      "has_stripped_dark_oak_wood"
    ]
  ],
  "rewards": {
    "recipes": [
      "minecraft:stripped_dark_oak_wood_column_from_stripped_dark_oak_wood_woodcutting"
    ]
  }
}