{
  "parent": "minecraft:recipes/root",
  "criteria": {
    "has_bamboo_block": {
      "conditions": {
        "items": [
          {
            "items": [
              "minecraft:bamboo_block"
            ]
          }
        ]
      },
      "trigger": "minecraft:inventory_changed"
    },
    "has_the_recipe": {
      "conditions": {
        "recipe": "minecraft:stripped_bamboo_block_column_from_bamboo_block_woodcutting"
      },
      "trigger": "minecraft:recipe_unlocked"
    }
  },
  "requirements": [
    [
      "has_the_recipe",
      "has_bamboo_block"
    ]
  ],
  "rewards": {
    "recipes": [
      "minecraft:stripped_bamboo_block_column_from_bamboo_block_woodcutting"
    ]
  }
}