{
  "parent": "minecraft:recipes/root",
  "criteria": {
    "has_swamp_log": {
      "conditions": {
        "items": [
          {
            "items": [
              "deployanddestroy:swamp_log"
            ]
          }
        ]
      },
      "trigger": "minecraft:inventory_changed"
    },
    "has_the_recipe": {
      "conditions": {
        "recipe": "minecraft:swamp_log_column_from_swamp_log_woodcutting"
      },
      "trigger": "minecraft:recipe_unlocked"
    }
  },
  "requirements": [
    [
      "has_the_recipe",
      "has_swamp_log"
    ]
  ],
  "rewards": {
    "recipes": [
      "minecraft:swamp_log_column_from_swamp_log_woodcutting"
    ]
  }
}