{
  "parent": "minecraft:recipes/root",
  "criteria": {
    "has_exposed_cut_copper_wall": {
      "conditions": {
        "items": [
          {
            "items": [
              "deployanddestroy:exposed_cut_copper_wall"
            ]
          }
        ]
      },
      "trigger": "minecraft:inventory_changed"
    },
    "has_the_recipe": {
      "conditions": {
        "recipe": "minecraft:waxed_exposed_cut_copper_wall2"
      },
      "trigger": "minecraft:recipe_unlocked"
    },
    "honeycomb": {
      "conditions": {
        "items": [
          {
            "items": [
              "minecraft:honeycomb"
            ]
          }
        ]
      },
      "trigger": "minecraft:inventory_changed"
    }
  },
  "requirements": [
    [
      "has_the_recipe",
      "honeycomb",
      "has_exposed_cut_copper_wall"
    ]
  ],
  "rewards": {
    "recipes": [
      "minecraft:waxed_exposed_cut_copper_wall2"
    ]
  }
}