{
  "type": "minecraft:crafting_shaped",
  "category": "misc",
  "key": {
    "#": {
      "item": "minecraft:stone"
    },
    "I": {
      "item": "minecraft:diamond"
    }
  },
  "pattern": [
    " I ",
    "###"
  ],
  "result": {
    "item": "minecraft:stonecutter"
  }
}
