
            {
              "variants": {
                  "lit=false": {
                      "model": "deployanddestroy:block/green_lamp"
                  },
                  "lit=true": {
                      "model": "deployanddestroy:block/green_lamp_on"
                  }
              }
            }
            