{
  "multipart": [
    {
      "apply": {
        "model": "deployanddestroy:block/mossy_andesite_bricks_column"
      }
    },
    {
      "apply": {
        "model": "deployanddestroy:block/mossy_andesite_bricks_column_side",
        "uvlock": true
      },
      "when": {
        "north": "true"
      }
    },
    {
      "apply": {
        "model": "deployanddestroy:block/mossy_andesite_bricks_column_side",
        "uvlock": true,
        "y": 90
      },
      "when": {
        "east": "true"
      }
    },
    {
      "apply": {
        "model": "deployanddestroy:block/mossy_andesite_bricks_column_side",
        "uvlock": true,
        "y": 180
      },
      "when": {
        "south": "true"
      }
    },
    {
      "apply": {
        "model": "deployanddestroy:block/mossy_andesite_bricks_column_side",
        "uvlock": true,
        "y": 270
      },
      "when": {
        "west": "true"
      }
    }
  ]
}