{
  "type": "minecraft:ore",
  "config": {
    "discard_chance_on_air_exposure": 0.0,
    "size": 8,
    "targets": [
      {
        "state": {
          "Name": "deployanddestroy:end_redstone_ore",
          "Properties": {
            "lit": "false"
          }
        },
        "target": {
          "block": "minecraft:end_stone",
          "predicate_type": "minecraft:block_match"
        }
      }
    ]
  }
}