{
  "replace": false,
  "values": [
    "deployanddestroy:azalea_log",
    "deployanddestroy:azalea_wood",
    "deployanddestroy:stripped_azalea_log",
    "deployanddestroy:stripped_azalea_wood",
    "deployanddestroy:swamp_log",
    "deployanddestroy:swamp_wood",
    "deployanddestroy:stripped_swamp_log",
    "deployanddestroy:stripped_swamp_wood"
  ]
}