{
  "replace": false,
  "values": [
    "deployanddestroy:netherrack_wall",
    "deployanddestroy:sandstone_brick_wall",
    "deployanddestroy:cracked_sandstone_brick_wall",
    "deployanddestroy:mossy_sandstone_brick_wall",
    "deployanddestroy:polished_sandstone_wall",
    "deployanddestroy:red_sandstone_brick_wall",
    "deployanddestroy:cracked_red_sandstone_brick_wall",
    "deployanddestroy:mossy_red_sandstone_brick_wall",
    "deployanddestroy:polished_red_sandstone_wall",
    "deployanddestroy:cracked_stone_brick_wall",
    "deployanddestroy:smooth_stone_wall",
    "deployanddestroy:stone_wall",
    "deployanddestroy:polished_andesite_wall",
    "deployanddestroy:polished_diorite_wall",
    "deployanddestroy:polished_granite_wall",
    "deployanddestroy:smooth_sandstone_wall",
    "deployanddestroy:smooth_red_sandstone_wall",
    "deployanddestroy:cracked_brick_wall",
    "deployanddestroy:mossy_brick_wall",
    "deployanddestroy:quartz_brick_wall",
    "deployanddestroy:quartz_wall",
    "deployanddestroy:smooth_quartz_wall",
    "deployanddestroy:charred_quartz_wall",
    "deployanddestroy:smooth_charred_quartz_wall",
    "deployanddestroy:charred_quartz_brick_wall",
    "deployanddestroy:andesite_brick_wall",
    "deployanddestroy:diorite_brick_wall",
    "deployanddestroy:granite_brick_wall",
    "deployanddestroy:cracked_andesite_brick_wall",
    "deployanddestroy:cracked_diorite_brick_wall",
    "deployanddestroy:cracked_granite_brick_wall",
    "deployanddestroy:mossy_andesite_brick_wall",
    "deployanddestroy:mossy_diorite_brick_wall",
    "deployanddestroy:mossy_granite_brick_wall",
    "deployanddestroy:polished_calcite_wall",
    "deployanddestroy:calcite_brick_wall",
    "deployanddestroy:cracked_calcite_brick_wall",
    "deployanddestroy:mossy_calcite_brick_wall",
    "deployanddestroy:calcite_wall",
    "deployanddestroy:cut_iron_wall",
    "deployanddestroy:cut_gold_wall",
    "deployanddestroy:cut_diamond_wall",
    "deployanddestroy:cut_emerald_wall",
    "deployanddestroy:cut_netherite_wall",
    "deployanddestroy:cut_lapis_wall",
    "deployanddestroy:polished_amethyst_wall",
    "deployanddestroy:polished_amethyst_brick_wall",
    "deployanddestroy:cut_polished_amethyst_wall",
    "deployanddestroy:packed_ice_brick_wall",
    "deployanddestroy:cracked_packed_ice_brick_wall",
    "deployanddestroy:large_packed_ice_brick_wall",
    "deployanddestroy:large_cracked_packed_ice_brick_wall",
    "deployanddestroy:polished_packed_ice_wall",
    "deployanddestroy:blue_ice_brick_wall",
    "deployanddestroy:cracked_blue_ice_brick_wall",
    "deployanddestroy:large_blue_ice_brick_wall",
    "deployanddestroy:large_cracked_blue_ice_brick_wall",
    "deployanddestroy:polished_blue_ice_wall",
    "deployanddestroy:cracked_deepslate_brick_wall",
    "deployanddestroy:cracked_deepslate_tile_wall",
    "deployanddestroy:cracked_nether_brick_wall",
    "deployanddestroy:cracked_polished_blackstone_brick_wall",
    "deployanddestroy:prismarine_brick_wall",
    "deployanddestroy:dark_prismarine_wall",
    "deployanddestroy:purpur_wall",
    "deployanddestroy:smooth_basalt_wall",
    "deployanddestroy:dripstone_wall",
    "deployanddestroy:polished_dripstone_wall",
    "deployanddestroy:dripstone_brick_wall",
    "deployanddestroy:cracked_dripstone_brick_wall",
    "deployanddestroy:mossy_dripstone_brick_wall",
    "deployanddestroy:cut_copper_wall",
    "deployanddestroy:waxed_cut_copper_wall",
    "deployanddestroy:exposed_cut_copper_wall",
    "deployanddestroy:waxed_exposed_cut_copper_wall",
    "deployanddestroy:weathered_cut_copper_wall",
    "deployanddestroy:waxed_weathered_cut_copper_wall",
    "deployanddestroy:oxidized_cut_copper_wall",
    "deployanddestroy:waxed_oxidized_cut_copper_wall",
    "deployanddestroy:mossy_cobbled_deepslate_wall",
    "deployanddestroy:mossy_deepslate_brick_wall",
    "deployanddestroy:cracked_tuff_brick_wall",
    "deployanddestroy:mossy_tuff_brick_wall"
  ]
}