{
  "parent": "minecraft:adventure/root",
  "criteria": {
    "use_wrench": {
      "conditions": {
        "location": [
          {
            "condition": "minecraft:location_check"
          },
          {
            "condition": "minecraft:match_tool",
            "predicate": {
              "items": [
                "deployanddestroy:wrench"
              ]
            }
          }
        ]
      },
      "trigger": "minecraft:item_used_on_block"
    }
  },
  "display": {
    "announce_to_chat": true,
    "description": {
      "translate": "advancements.adventure.use_wrench.description"
    },
    "frame": "task",
    "hidden": false,
    "icon": {
      "item": "deployanddestroy:wrench"
    },
    "show_toast": true,
    "title": {
      "translate": "advancements.adventure.use_wrench.title"
    }
  },
  "requirements": [
    [
      "use_wrench"
    ]
  ],
  "sends_telemetry_event": true
}