{
  "type": "minecraft:crafting_shaped",
  "category": "building",
  "key": {
    "B": {
      "tag": "deployanddestroy:amethyst_torches"
    },
    "N": {
      "item": "minecraft:iron_nugget"
    }
  },
  "pattern": [
    "NNN",
    "NBN",
    "NNN"
  ],
  "result": {
    "item": "deployanddestroy:amethyst_lantern"
  }
}