{
  "type": "minecraft:crafting_shaped",
  "category": "building",
  "key": {
    "#": {
      "item": "deployanddestroy:andesite_bricks"
    }
  },
  "pattern": [
    "###"
  ],
  "result": {
    "count": 6,
    "item": "deployanddestroy:andesite_brick_slab"
  }
}