{
  "type": "minecraft:crafting_shaped",
  "category": "misc",
  "group": "boat",
  "key": {
    "#": {
      "item": "deployanddestroy:azalea_planks"
    }
  },
  "pattern": [
    "# #",
    "###"
  ],
  "result": {
    "item": "deployanddestroy:azalea_boat"
  }
}