{
  "type": "minecraft:crafting_shaped",
  "category": "misc",
  "key": {
    "C": {
      "tag": "minecraft:coals"
    },
    "N": {
      "item": "minecraft:netherrack"
    }
  },
  "pattern": [
    " N ",
    "NCN",
    " N "
  ],
  "result": {
    "item": "deployanddestroy:blazing_coal"
  }
}