{
  "type": "minecraft:blasting",
  "category": "blocks",
  "cookingtime": 100,
  "experience": 0.1,
  "group": "charred_quartz",
  "ingredient": {
    "item": "minecraft:quartz_stairs"
  },
  "result": "deployanddestroy:charred_quartz_stairs"
}