{
  "type": "minecraft:crafting_shaped",
  "category": "building",
  "key": {
    "#": {
      "item": "deployanddestroy:red_sandstone_brick_slab"
    }
  },
  "pattern": [
    "#",
    "#"
  ],
  "result": {
    "item": "deployanddestroy:chiseled_polished_red_sandstone"
  }
}