{
  "type": "minecraft:crafting_shaped",
  "category": "building",
  "key": {
    "C": {
      "tag": "minecraft:coals"
    },
    "P": {
      "item": "minecraft:copper_ingot"
    },
    "S": {
      "item": "minecraft:stick"
    }
  },
  "pattern": [
    "C",
    "S",
    "P"
  ],
  "result": {
    "count": 4,
    "item": "deployanddestroy:copper_torch"
  }
}