{
  "type": "minecraft:crafting_shaped",
  "category": "building",
  "key": {
    "B": {
      "item": "minecraft:barrel"
    },
    "C": {
      "item": "minecraft:copper_ingot"
    }
  },
  "pattern": [
    "CCC",
    "CBC",
    "CCC"
  ],
  "result": {
    "item": "deployanddestroy:copper_barrel"
  }
}