{
  "type": "minecraft:smelting",
  "category": "blocks",
  "cookingtime": 200,
  "experience": 0.1,
  "group": "cracked_granite_bricks",
  "ingredient": {
    "item": "deployanddestroy:granite_brick_wall"
  },
  "result": "deployanddestroy:cracked_granite_brick_wall"
}