{
  "type": "minecraft:blasting",
  "category": "blocks",
  "cookingtime": 100,
  "experience": 0.1,
  "group": "cracked_bricks",
  "ingredient": {
    "item": "deployanddestroy:sandstone_bricks_column"
  },
  "result": "deployanddestroy:cracked_sandstone_bricks_column"
}