{
  "type": "minecraft:smelting",
  "category": "blocks",
  "cookingtime": 200,
  "experience": 0.1,
  "group": "cracked_nether_bricks",
  "ingredient": {
    "item": "minecraft:nether_brick_stairs"
  },
  "result": "deployanddestroy:cracked_nether_brick_stairs"
}