{
  "type": "minecraft:smelting",
  "category": "blocks",
  "cookingtime": 200,
  "experience": 0.05,
  "group": "cracked_stone_bricks",
  "ingredient": {
    "item": "minecraft:stone_brick_slab"
  },
  "result": "deployanddestroy:cracked_stone_brick_slab"
}