{
  "type": "minecraft:crafting_shaped",
  "category": "building",
  "key": {
    "#": {
      "item": "deployanddestroy:cut_emerald"
    }
  },
  "pattern": [
    "#  ",
    "## ",
    "###"
  ],
  "result": {
    "count": 4,
    "item": "deployanddestroy:cut_emerald_stairs"
  }
}