{
  "type": "minecraft:crafting_shapeless",
  "category": "building",
  "group": "dye_lamps",
  "ingredients": [
    {
      "item": "minecraft:pink_dye"
    },
    [
      {
        "item": "deployanddestroy:white_lamp"
      },
      {
        "item": "deployanddestroy:light_gray_lamp"
      },
      {
        "item": "deployanddestroy:gray_lamp"
      },
      {
        "item": "deployanddestroy:black_lamp"
      },
      {
        "item": "deployanddestroy:brown_lamp"
      },
      {
        "item": "deployanddestroy:red_lamp"
      },
      {
        "item": "deployanddestroy:orange_lamp"
      },
      {
        "item": "deployanddestroy:yellow_lamp"
      },
      {
        "item": "deployanddestroy:lime_lamp"
      },
      {
        "item": "deployanddestroy:green_lamp"
      },
      {
        "item": "deployanddestroy:cyan_lamp"
      },
      {
        "item": "deployanddestroy:light_blue_lamp"
      },
      {
        "item": "deployanddestroy:blue_lamp"
      },
      {
        "item": "deployanddestroy:purple_lamp"
      },
      {
        "item": "deployanddestroy:magenta_lamp"
      },
      {
        "item": "minecraft:redstone_lamp"
      }
    ]
  ],
  "result": {
    "item": "deployanddestroy:pink_lamp"
  }
}