{
  "type": "minecraft:crafting_shaped",
  "category": "building",
  "key": {
    "B": {
      "item": "deployanddestroy:iron_barrel"
    },
    "G": {
      "item": "minecraft:gold_ingot"
    }
  },
  "pattern": [
    "GGG",
    "GBG",
    "GGG"
  ],
  "result": {
    "item": "deployanddestroy:gold_barrel"
  }
}