{
  "type": "minecraft:stonecutting",
  "count": 1,
  "ingredient": {
    "item": "deployanddestroy:large_cracked_blue_ice_bricks"
  },
  "result": "deployanddestroy:large_cracked_blue_ice_bricks_column"
}