{
  "type": "minecraft:crafting_shaped",
  "category": "building",
  "key": {
    "#": {
      "item": "deployanddestroy:large_cracked_blue_ice_bricks"
    }
  },
  "pattern": [
    "###",
    "###"
  ],
  "result": {
    "count": 6,
    "item": "deployanddestroy:large_cracked_blue_ice_brick_wall"
  }
}