{
  "type": "minecraft:crafting_shaped",
  "category": "building",
  "key": {
    "#": {
      "item": "deployanddestroy:netherite_nugget"
    }
  },
  "pattern": [
    "###",
    "###",
    "###"
  ],
  "result": {
    "item": "minecraft:netherite_ingot"
  }
}