{
  "type": "minecraft:smithing_transform",
  "addition": {
    "item": "minecraft:netherite_ingot"
  },
  "base": {
    "item": "deployanddestroy:diamond_barrel"
  },
  "result": {
    "item": "deployanddestroy:netherite_barrel"
  },
  "template": {
    "item": "minecraft:netherite_upgrade_smithing_template"
  }
}