{
  "type": "minecraft:crafting_shaped",
  "category": "building",
  "key": {
    "#": {
      "item": "deployanddestroy:polished_packed_ice"
    }
  },
  "pattern": [
    "##",
    "##"
  ],
  "result": {
    "count": 4,
    "item": "deployanddestroy:packed_ice_bricks"
  }
}