{
  "type": "minecraft:crafting_shaped",
  "category": "building",
  "key": {
    "@": {
      "item": "deployanddestroy:polished_calcite"
    }
  },
  "pattern": [
    "@",
    "@",
    "@"
  ],
  "result": {
    "count": 3,
    "item": "deployanddestroy:polished_calcite_column"
  }
}