{
  "type": "minecraft:crafting_shaped",
  "category": "building",
  "key": {
    "@": {
      "item": "deployanddestroy:polished_packed_ice"
    }
  },
  "pattern": [
    "@@@",
    "@@@",
    "@@@"
  ],
  "result": {
    "item": "deployanddestroy:polished_blue_ice"
  }
}