{
  "type": "minecraft:crafting_shaped",
  "category": "building",
  "key": {
    "B": {
      "tag": "deployanddestroy:redstone_torches"
    },
    "R": {
      "item": "minecraft:redstone"
    },
    "S": {
      "item": "minecraft:stone"
    }
  },
  "pattern": [
    "BRB",
    "SSS"
  ],
  "result": {
    "item": "minecraft:repeater"
  }
}