{
  "type": "minecraft:crafting_shapeless",
  "category": "misc",
  "ingredients": [
    {
      "item": "deployanddestroy:grass_bundle"
    }
  ],
  "result": {
    "count": 9,
    "item": "minecraft:short_grass"
  }
}