{
  "type": "minecraft:blasting",
  "category": "blocks",
  "cookingtime": 100,
  "experience": 0.1,
  "group": "smooth_charred_quartz",
  "ingredient": {
    "item": "minecraft:smooth_quartz"
  },
  "result": "deployanddestroy:smooth_charred_quartz_block"
}