{
  "type": "minecraft:smelting",
  "category": "blocks",
  "cookingtime": 200,
  "experience": 0.1,
  "group": "smooth_sandstone",
  "ingredient": {
    "item": "minecraft:sandstone_wall"
  },
  "result": "deployanddestroy:smooth_sandstone_wall"
}