{
  "type": "minecraft:crafting_shaped",
  "category": "building",
  "key": {
    "#": {
      "item": "deployanddestroy:smooth_charred_quartz_block"
    }
  },
  "pattern": [
    "###",
    "###"
  ],
  "result": {
    "count": 6,
    "item": "deployanddestroy:smooth_charred_quartz_wall"
  }
}