{
  "type": "minecraft:smelting",
  "category": "blocks",
  "cookingtime": 200,
  "experience": 0.05,
  "group": "stone",
  "ingredient": {
    "item": "minecraft:cobblestone_slab"
  },
  "result": "minecraft:stone_slab"
}