{
  "type": "minecraft:smelting",
  "category": "blocks",
  "cookingtime": 200,
  "experience": 0.1,
  "group": "stone",
  "ingredient": {
    "item": "minecraft:cobblestone_stairs"
  },
  "result": "minecraft:stone_stairs"
}