{
  "type": "minecraft:crafting_shaped",
  "category": "building",
  "key": {
    "@": {
      "item": "minecraft:stripped_mangrove_log"
    }
  },
  "pattern": [
    "@",
    "@",
    "@"
  ],
  "result": {
    "count": 3,
    "item": "deployanddestroy:stripped_mangrove_log_column"
  }
}