{
  "type": "minecraft:crafting_shaped",
  "category": "misc",
  "group": "sign",
  "key": {
    "#": {
      "item": "deployanddestroy:swamp_planks"
    },
    "X": {
      "item": "minecraft:stick"
    }
  },
  "pattern": [
    "###",
    "###",
    " X "
  ],
  "result": {
    "count": 3,
    "item": "deployanddestroy:swamp_sign"
  }
}