{
  "type": "minecraft:crafting_shapeless",
  "category": "building",
  "group": "planks",
  "ingredients": [
    {
      "tag": "deployanddestroy:swamp_logs"
    }
  ],
  "result": {
    "count": 4,
    "item": "deployanddestroy:swamp_planks"
  }
}