{
  "type": "minecraft:smelting",
  "category": "blocks",
  "cookingtime": 200,
  "experience": 0.1,
  "group": "cracked_bricks",
  "ingredient": {
    "item": "deployanddestroy:cracked_tuff_brick_slab"
  },
  "result": "minecraft:tuff_brick_slab"
}