{
  "type": "minecraft:crafting_shaped",
  "category": "redstone",
  "key": {
    "#": {
      "item": "minecraft:waxed_oxidized_copper"
    }
  },
  "pattern": [
    "##"
  ],
  "result": {
    "item": "deployanddestroy:waxed_oxidized_copper_pressure_plate"
  }
}