{
  "type": "minecraft:crafting_shaped",
  "category": "building",
  "key": {
    "C": {
      "item": "minecraft:cobblestone"
    },
    "I": {
      "item": "minecraft:iron_ingot"
    }
  },
  "pattern": [
    " I ",
    "CCC"
  ],
  "result": {
    "item": "deployanddestroy:woodcutter"
  }
}