{
  "parent": "minecraft:recipes/root",
  "criteria": {
    "has_cut_netherite": {
      "conditions": {
        "items": [
          {
            "items": [
              "deployanddestroy:cut_netherite"
            ]
          }
        ]
      },
      "trigger": "minecraft:inventory_changed"
    },
    "has_the_recipe": {
      "conditions": {
        "recipe": "minecraft:netherite_ingot_from_cut_block"
      },
      "trigger": "minecraft:recipe_unlocked"
    }
  },
  "requirements": [
    [
      "has_the_recipe",
      "has_cut_netherite"
    ]
  ],
  "rewards": {
    "recipes": [
      "minecraft:netherite_ingot_from_cut_block"
    ]
  }
}