{
  "feature": "deployanddestroy:end_redstone_ore_configured",
  "placement": [
    {
      "type": "minecraft:count",
      "count": 8
    },
    {
      "type": "minecraft:in_square"
    },
    {
      "type": "minecraft:height_range",
      "height": {
        "type": "minecraft:uniform",
        "max_inclusive": {
          "absolute": 80
        },
        "min_inclusive": {
          "absolute": -80
        }
      }
    },
    {
      "type": "minecraft:biome"
    }
  ]
}